{
  "review": [
    {
      "sentiment": 2,
      "abstract": "<span>\u597d\u7684\u98df\u7269<\/span>",
      "prop": "\u98df\u7269",
      "begin_pos": 0,
      "end_pos": 8,
      "adj": "\u597d"
    },
    {
      "sentiment": 2,
      "abstract": "<span>\u7a7a\u95f4\u975e\u5e38\u6f02\u4eae<\/span>",
      "prop": "\u7a7a\u95f4\u5927",
      "begin_pos": 0,
      "end_pos": 12,
      "adj": ""
    }
  ],
  "sentiment": {
    "positive_prob": 0.786453,
    "confidence": 0.525452,
    "negative_prob": 0.213547,
    "sentiment": 2
  }
}